{
  "header": {
    "blocks": [
      "header-layout.desktop",
      "header-layout.mobile"
    ]
  },
  "header.full": {
    "blocks": [
      "header-layout.desktop",
      "header-layout.mobile"
    ]
  },
  "header-layout.desktop": {
    "children": [
      "flex-layout.row#1-desktop", //televentas
      "flex-layout.row#2-desktop", //top-menu
      "flex-layout.row#3-desktop", //navbar
      "flex-layout.row#4-desktop" //despachos
    ]
  },
  "flex-layout.row#1-desktop": {
    "children": [
      "telemarketing"
    ],
    "props": {
      "fullWidth": true
    }
  },
  "flex-layout.row#4-desktop": {
    "children": [
      "flex-layout.col#topleft",
      "flex-layout.col#topright",
      "flex-layout.col#topleft2",
      "flex-layout.col#topright2"
    ],
    "props": {
      "fullWidth": "true",
      "blockClass": "topbar-despacho"
    }
  },

  "flex-layout.col#topleft": {
    "props": {
      "blockClass": "despacho-left"
    },
    "children": [
      "rich-text#top-left"
    ]
  },
  "rich-text#top-left": {
    "props": {
      "text": "Despacho gratis a RM sobre $25.000 /",
      "blockClass": "top-left",
      "textAlignment": "right",
      "textPosition":"right"
    }
  },
  "flex-layout.col#topright": {
    "props": {
      "blockClass": "despacho-right",
      "marginRight": 10
    },
    "children": [
      "minicart-bar-top"
    ]
  },
  
  "flex-layout.col#topleft2": {
    "props": {
      "blockClass": "despacho-left"
    },
    "children": [
      "rich-text#top-left2"
    ]
  },
  "rich-text#top-left2": {
    "props": {
      "text": "Despacho gratis Otras Regiones sobre $45.000* excluye I, II, X, XI, XII y XV región /",
      "blockClass": "top-left",
      "textAlignment": "right",
      "textPosition":"right"
    }
  },
  "flex-layout.col#topright2": {
    "props": {
      "blockClass": "despacho-right"
    },
    "children": [
      "minicart-bar-top-region"
    ]
  },

  "flex-layout.row#2-desktop": {
    "props": {
      "blockClass": "top-menu",
      "horizontalAlign": "center",
      "preventHorizontalStretch": true,
      "preventVerticalStretch": true,
      "fullWidth": true
    },
    "children": [
      "rich-text#topbar-left",
      "flex-layout.col#spacer",
      "vtex.menu@2.x:menu#websites"
    ]
  },
  "rich-text#topbar-left": {
    "props": {
      "text": "ESTAMOS TOMANDO TODAS LAS MEDIDAS SANITARIAS NECESARIAS PARA HACER DESPACHOS SEGUROS EN EL MENOR TIEMPO POSIBLE. ES POR ELLO QUE LAS ENTREGAS PODRÍAN DEMORAR ENTRE 7 A 10 DÍAS HÁBILES.",
      "blockClass": "topbar-left"
    }
  },
  "flex-layout.col#spacer": {
    "props": {
      "width": "grow"
    }
  },
  "flex-layout.row#3-desktop": {
    "props": {
      "blockClass": "navbar",
      "horizontalAlign": "center",
      "verticalAlign": "center",
      "preventHorizontalStretch": true,
      "preventVerticalStretch": true,
      "fullWidth": true
    },
    "children": [
      "flex-layout.col#logo-desktop",
      "flex-layout.col#spacer",
      "flex-layout.col#category-menu",
      "flex-layout.col#spacer",
      "search-bar",
      "flex-layout.col#spacer",
      "menu-item#orders",
      "menu-item#account",
      "minicart.v2"
    ]
  },
  "menu-item#orders": {
    "props": {
      "id": "menu-item-orders",
      "blockClass": "orders",
      "type": "custom",
      "iconId": null,
      "highlight": false,
      "iconProps": {
        "id": "hpa-order",
        "viewBox": "0 0 24 16"
      },
      "itemProps": {
        "type": "internal",
        "href": "/account#/orders",
        "noFollow": false
      }
    }
  },
  "menu-item#account": {
    "props": {
      "id": "menu-item-orders",
      "blockClass": "orders",
      "type": "custom",
      "iconId": null,
      "highlight": false,
      "iconProps": {
        "id": "hpa-login",
        "viewBox": "0 0 24 16"
      },
      "itemProps": {
        "type": "internal",
        "href": "/account",
        "noFollow": false
      }
    }
  },
  "flex-layout.col#logo-desktop": {
    "props": {
      "verticalAlign": "middle"
    },
    "children": [
      "logo#desktop"
    ]
  },
  "flex-layout.col#category-menu": {
    "props": {
      "verticalAlign": "middle"
    },
    "children": [
      "vtex.menu@2.x:menu#category-menu"
    ]
  },
  "logo#desktop": {
    "props": {
      "title": "Logo",
      "href": "/",
      "url": "/arquivos/logo.svg",
      "width": "110"
    }
  },
  "header-layout.mobile": {
    "children": [
      "sticky-layout#1-mobile"
    ]
  },
  "sticky-layout#1-mobile": {
    "children": [
      "flex-layout.row#1-mobile"
    ]
  },
  "flex-layout.row#1-mobile": {
    "children": [
      "drawer",
      "logo#mobile",
      "flex-layout.col#spacer",
      "disclosure-layout#search-mobile",
      "menu-item#account-mobile",
      "minicart.v2#mobile"
    ],
    "props": {
      "blockClass": "navbar-mobile",
      "preventHorizontalStretch": true,
      "preserveLayoutOnMobile": true,
      "fullWidth": true
    }
  },
  "disclosure-layout#search-mobile":{
    "children": ["disclosure-trigger#search-mobile", "disclosure-content#search-mobile"],
    "props":{
      "blockClass": "mobile-search"
    }
  },
  "disclosure-trigger#search-mobile":{
    "children": ["menu-item#search"],
    "props":{
      "blockClass": "mobile-search"
    }
  },
  "disclosure-content#search-mobile":{
    "children": ["search-bar"]
  },
  "menu-item#search": {
    "props": {
      "id": "menu-item-search-icon",
      "type": "custom",
      "iconId": null,
      "highlight": false,
      "iconProps":{
        "id": "new-search",
        "viewBox": "0 0 21 21"

      }
    }
  },
  "drawer": {
    "children": [
      "menu#drawer"
    ]
  },
  "menu-item#account-mobile": {
    "props": {
      "id": "menu-item-orders",
      "blockClass": "orders",
      "type": "custom",
      "iconId": null,
      "highlight": false,
      "iconProps": {
        "id": "hpa-login",
        "size": 20,
        "viewBox": "0 0 23 16"
      },
      "itemProps": {
        "type": "internal",
        "href": "/account",
        "noFollow": false
      }
    }
  },
  "minicart.v2#mobile": {
    "props": {
      "MinicartIcon": "icon-cart#minicart-icon-mobile"
    },
    "children": ["minicart-base-content"]
  },
  "icon-cart#minicart-icon-mobile": {
    "props": {
      "id": "hpa-cart",
      "size": 20,
      "viewBox": "0 0 24 16"
    }
  },
  
  "logo#mobile": {
    "props": {
      "title": "Logo Kayser",
      "href": "/",
      "url": "/arquivos/logo.svg",
      "width": "120"
    }
  },

  "search-bar":{
    "blocks": ["autocomplete-result-list.v2"],
    "props": {
      "openAutocompleteOnFocus": true,
      "placeholder": "Busca tu producto aqui"
    }
  }
}