{
    "store.custom#landing-cyber": {
      "blocks": [
        "image#landing-cyber",
        "flex-layout.row#newsletter-cyber",
        "flex-layout.row#mid-landing-cyber",
        "flex-layout.row#end-landing-cyber"
      ]
    },
    "image#landing-cyber": {
      "props": {
        "src": "https://www.kaysershop.com/arquivos/PRECYBER-M.png?v=637568782479370000",
        "blockClass": "img-institucional"
      }
    },

    "flex-layout.row#newsletter-cyber": {
      "children": [
        "flex-layout.col#text-newsletter-cyber",
        "flex-layout.col#newsletter-cyber"
      ],
      "props": {
          "blockClass": "cyber",
          "paddingBottom": 8,
          "paddingTop": 8
      }
    },
    "flex-layout.col#text-newsletter-cyber": {
      "children": [
        "rich-text#title-newsletter",
        "rich-text#text-newsletter"
      ],
      "props": {
        "blockClass": "newsletter-cyber",
        "preventVerticalStretch": true
      }
    },
    "rich-text#title-newsletter":{
        "props":{
            "text": "## INSCRÍBETE Y OBTÉN DESCUENTOS Y PROMOCIONES PARA EL CYBER",
            "blockClass": "title-newsletter"
        }
    },
    "rich-text#text-newsletter":{
        "props": {
            "text": "Para este Cyber no te pierdas nuestras promociones y descuentos. Si quieres tener información privilegiada y saber cuando se realizaran, inscríbete en nuestro Newsletter y recibirás a tu correo electrónico todo lo que necesitas saber."
        }
    },
    "flex-layout.col#newsletter-cyber": {
        "children": ["newsletter"]
    },


    "flex-layout.row#mid-landing-cyber":{
        "children": ["flex-layout.col#text-mid-cyber"],
        "props": {
            "blockClass": ["cyber", "mid-cyber"],
            "paddingBottom": 8,
            "paddingTop": 8
        }
    },
    "flex-layout.col#text-mid-cyber":{
        "children": ["rich-text#title-mid-cyber", "rich-text#text-mid-cyber"]
    },
    "rich-text#title-mid-cyber":{
        "props": {
            "text": "## ¡LA FIEBRE DE LOS CYBER!",
            "blockClass": "title-mid-cyber"
        }
    },
    "rich-text#text-mid-cyber":{
        "props": {
            "text": "##### CYBERDAY, CYBERMONDAY, BLACKFRIDAY\nEsos tres días donde el comercio electrónico revoluciona por las magníficas ofertas que solo se pueden obtener por un tiempo limitado y nosotros somos parte de eso.\n##### ¿CUÁNDO ES EL CYBERDAY 2021?\nEl próximo CyberDay se realizará desde las 00:00 horas del lunes 31 de Mayo hasta las 23:59 horas del miércoles 02 de Junio del 2021. Durante estos días, podrás encontrar increíbles ofertas y descuentos en diversas categorías para toda la familia, disponibles en kaysershop.com\n##### ¿CUÁL ES LA DIFERENCIA ENTRE CYBERDAY Y CYBERMONDAY?\nLa diferencia entre estos dos eventos de descuentos por Internet, es la fecha en la cual se realizan. Cyber Day generalmente se produce en mayo, mientras que el Cyber Monday ocurre en octubre."
        }
    },


    "flex-layout.row#end-landing-cyber":{
        "children": [
            "flex-layout.col#end-left-cyber",
            "flex-layout.col#end-right-cyber"
        ],
        "props": {
            "blockClass": "cyber",
            "paddingBottom": 8,
            "paddingTop": 8,
            "colGap": 6
        }
    },
    "flex-layout.col#end-left-cyber":{
        "children": ["rich-text#end-left-cyber"]
    },
    "flex-layout.col#end-right-cyber":{
        "children": ["rich-text#end-right-cyber"]
    },
    "rich-text#end-left-cyber":{
        "props":{
            "text": "**Tips para las compras durante estos días**\n1. Usa una conexión a Internet conocida. Evita conectarte a redes públicas y prefiere siempre la conexión de tu hogar, tu teléfono móvil o de tu lugar de trabajo durante el evento.\n2. Antes de comprar un producto en nuestra tienda, borra todos los datos guardados en tu navegador (El caché); esto porque algunas veces se almacenan preferencias de sesiones anteriores y se pueden mostrar ofertas que ya están vencidas.\n3. Actualiza tu antivirus para evitar cualquier inconveniente, ya que al momento de realizar la compra los días de Cyber, esto puede ser de gran ayuda.\n4. Fíjate muy bien en la dirección del sitio en la que estás comprando. Revisa que sea la correcta y que tenga una conexión segura (https) ¡nuestro sitio en 100% seguro!\n5. Haz una lista de los productos que quieres comprar para que no se te olviden durante la jornada de vitrineo en el Cyber.\n6. Regístrate aquí para conocer primero todas las ofertas que estarán presentes durante el Cyber.\n\nEstos días las empresas se reúnen en las páginas oficiales para proponer cupones, ofertas, y los mejores descuentos en productos de distintas “categorías” del comercio.\n\nSe parte del Cyber Chile ¡Atento! Para que puedas vivir este evento al máximo.\n\nPon atención a nuestros consejos y prepárate para aprovechar las mejores ofertas y descuentos en estos pocos días."
        }
    },
    "rich-text#end-right-cyber":{
        "props": {
            "text": "**¿Quieres recibir más información para este Cyber?**\nPuedes inscribirte aquí y recibir nuestras mejores ofertas en las categorías (cada cliente debe agregar todos sus departamentos y categorías, también se puede enviar una imagen referencial de cada categoría). Nuestras categorías son las siguientes\n**Accesorios (Camisetas, Otros)\nBoxer (Calzoncillos Largos, Clásicos, Colección, Corto Algodón, Corto Bamboo, Largo Algodón, Largo Bamboo, Microfibra, Sin Costura, Trevira)\nCalcetines (Algodón, Bamboo, Calcetines Cortos, Calcetines Largos, Deportivos, Invisibles)\nPijamas (Algodón, Batas, Enteritos, Estampado, Los Simpsons, Pantuflas, Pijama Short, Pijamas, Pijamas Largo, Polar)\nSlip (Clasicos, Colección, Estampado, Maxi, Sin Costura, Tejido)\nKids Hombre (Boxer, Calcetines, Calzoncillos, Camisetas, Pijamas, Slip)\nKids Mujer (Bikini, Calcetines, Calzones, Camisetas, Pijamas)\nTeen Hombre (Boxer, Calcetines, Calzoncillos Largos, Pijamas, Slip)\nTeen Mujer (Bikini, Calcetines, Calzones, Camisetas, Conjuntos, Pantaletas, Petos, Pijamas, Sostenes)\nAccesorios (Breteles, Broches, Camisetas, Otros, Baby Doll, Encaje, Liso, Tull)\nCalcetines y Pantys (Algodón, Bamboo, Calcetines Cortos, Calcetines Largos, Calzas, Deportivos, Invisibles, Medias, Mini Medias, Pantys con Diseño, Pantys Lisa, Polar, Térmicos)\nCalzones (Bikini, Colaless, Control, Cuolotte, Hi Leggs, Maternal, Maxi, Pantaletas)\nCamisetas (Camiseta, Camiseta Control, Manga Larga, Poleras, Polerones, Sin Manga, Térmicas)\nEnaguas (Enagua Cintura, Enagua Entera)\nLinea Control (Bodys, Con estomago, Control Abdomen, Correctores, Hi-Leggs, Maxi, Modeladores)\nPijamas (Algodón, Batas, Camisola, Enteritos, Microfibra, Otros, Pantuflas, Pijamas, Polar, Satín)\nSostenes (Algodón, Bralette, Con Estomago, Corrector de Postura, Deportivo, Encaje, Maternal, Microfibra, Minimizer, Push Up, Sin Aro, Sin Costura, Sin Soft, Soft, Sosten, Strapless)\nPack\nCatálogo**\nEmpresa oficial Cámara de Comercio de Santiago."
        }
    }
  }
  